…
## What is mean total number of steps taken per day?
Ignoring the missing values for days, we just sum the number of steps for each day.


```r
by_day<-group_by(tidycsv,date)
total_steps_per_day<-summarise(by_day,total_steps=sum(steps))
total_steps_per_day
```

```
## # A tibble: 53 x 2
##    date       total_steps
##    <fct>            <int>
##  1 2012-10-02         126
##  2 2012-10-03       11352
##  3 2012-10-04       12116
##  4 2012-10-05       13294
##  5 2012-10-06       15420
##  6 2012-10-07       11015
##  7 2012-10-09       12811
##  8 2012-10-10        9900
##  9 2012-10-11       10304
## 10 2012-10-12       17382
## # … with 43 more rows
```
…
The median number of total number od steps per day is: 10765.

The mean total number of steps per day is: 10766.

## What is the average daily activity pattern?


```r
by_time<-group_by(tidycsv,interval)
average_num_steps_at_time<-summarise(by_time,average_num_steps=mean(steps))
average_num_steps_at_time
```

```
## # A tibble: 288 x 2
##    interval average_num_steps
##       <int>             <dbl>
##  1        0            1.72  
##  2        5            0.340 
##  3       10            0.132 
##  4       15            0.151 
##  5       20            0.0755
##  6       25            2.09  
##  7       30            0.528 
##  8       35            0.868 
##  9       40            0     
## 10       45            1.47  
## # … with 278 more rows
```
…
